{
  "project_info": {
    "project_number": "102835249109",
    "firebase_url": "https://bilgihazinem-2b05c.firebaseio.com",
    "project_id": "bilgihazinem-2b05c",
    "storage_bucket": "bilgihazinem-2b05c.appspot.com"
  },
  "client": [
    {
      "client_info": {
        "mobilesdk_app_id": "1:102835249109:android:341cd30ec05f137f",
        "android_client_info": {
          "package_name": "tk.bilgihazinem.bhandroid"
        }
      },
      "oauth_client": [
        {
          "client_id": "102835249109-e8srojpaa0b1no10asi2seaaskktccg0.apps.googleusercontent.com",
          "client_type": 3
        }
      ],
      "api_key": [
        {
          "current_key": "AIzaSyAZfM9cx9eA1rAfH6TwfmRy-HXVqkVBigY"
        }
      ],
      "services": {
        "analytics_service": {
          "status": 1
        },
        "appinvite_service": {
          "status": 1,
          "other_platform_oauth_client": []
        },
        "ads_service": {
          "status": 2
        }
      }
    }
  ],
  "configuration_version": "1"
}